[
    {
        "products": [
            {
                "vendor": "bigbuy",
                "sku": "18292",
                "uri": "https://www.bigbuy.eu/en/colors-handbag-mirror-with-built-in-brush.html",
                "option": null,
                "cost": "0.72",
                "quantity": "1",
                "totalCost": 0.72
            }
        ],
        "shipping": []
    }
]